{
  "order_items": [
    {
      "name": "bread",
      "quantity": 2,
      "price": 2200
    },
    {
      "name": "butter",
      "quantity": 2,
      "price": 5900
    }
  ],
  "distance": 1500,
  "offer": {
    "offer_type": "FLAT",
    "offer_val": 1000
  }
}
